Analysis of Main vs. Print Headlines: Phase 2
…
#If it would be useful to replace the numeric score with same {negative, neutral, positive} scale.
replace_score_with_sentiment <- function(v_score) {
  v_score[v_score > 0] <- "positive"
  v_score[v_score < 0] <- "negative"
  v_score[v_score == 0] <- "neutral"
  v_score
} 
#apply scale to main results
main_sentiments_results$bing_score <- replace_score_with_sentiment(main_sentiments_results$bing_score)
main_sentiments_results$nrc_score <- replace_score_with_sentiment(main_sentiments_results$nrc_score)
main_sentiments_results$afinn_score <- replace_score_with_sentiment(main_sentiments_results$afinn_score)
main_sentiments_results[,2:5] <- lapply(main_sentiments_results[,2:5], as.factor)
head(main_sentiments_results, 40)

# A tibble: 40 x 6
# Rowwise: 
   main_text          bing_score nrc_score afinn_score final_sentiment
   <chr>              <fct>      <fct>     <fct>       <fct>          
 1 $174 Million Afgh~ <NA>       negative  <NA>        negative       
 2 A Hail Mary: Ps~ positive   neutral   positive    positive       
 3 Come On In, Boys~ <NA>       negative  negative    negative       
 4 Covid Cant Comp~ negative   negative  negative    negative       
 5 Everything Chang~ <NA>       negative  <NA>        negative       
 6 Finally, I Am Sa~ positive   positive  positive    positive       
 7 Find Him and Kil~ negative   negative  negative    negative       
 8 Football Is Like~ <NA>       positive  <NA>        positive       
 9 Go Big on Coron~ positive   positive  <NA>        positive       
10 Hospital Needs t~ <NA>       negative  negative    negative       
# ... with 30 more rows, and 1 more variable: congruence <lgl>

#apply scale to print results
print_sentiments_results$bing_score <- replace_score_with_sentiment(print_sentiments_results$bing_score)
print_sentiments_results$nrc_score <- replace_score_with_sentiment(print_sentiments_results$nrc_score)
print_sentiments_results$afinn_score <- replace_score_with_sentiment(print_sentiments_results$afinn_score)
print_sentiments_results[,2:5] <- lapply(print_sentiments_results[,2:5], as.factor)
head(print_sentiments_results, 40)

# A tibble: 40 x 6
# Rowwise: 
   print_text         bing_score nrc_score afinn_score final_sentiment
   <chr>              <fct>      <fct>     <fct>       <fct>          
 1 "$174 Million Dro~ <NA>       negative  <NA>        negative       
 2 "Psychedelic Ther~ negative   negative  negative    negative       
 3 "Morocco Sends Sp~ <NA>       negative  <NA>        negative       
 4 "Its a Lie: De~ negative   negative  negative    negative       
 5 "Everything Chan~ <NA>       <NA>      <NA>        <NA>           
 6 "Finally, I Am S~ positive   positive  positive    positive       
 7 "Find Him and Ki~ negative   negative  negative    negative       
 8 "Soccer Players U~ negative   negative  negative    negative       
 9 "Plan Would Injec~ <NA>       positive  <NA>        positive       
10 "As Pandemic Take~ negative   negative  negative    negative       
# ... with 30 more rows, and 1 more variable: congruence <lgl>
…
